.........
----------------------------------------------------------------------
Ran 9 tests in 0.001s

OK
Name               Stmts   Miss Branch BrPart  Cover   Missing
--------------------------------------------------------------
Diplomacy.py          79      4     36      3    94%   24, 27->exit, 107-108, 115
TestDiplomacy.py      51      0      2      1    98%   100->exit
--------------------------------------------------------------
TOTAL                130      4     38      4    95%
